<?xml version="1.0" encoding="UTF-8" standalone="no"?>
<!-- Created with Inkscape (http://www.inkscape.org/) -->

<svg
   xmlns:dc="http://purl.org/dc/elements/1.1/"
   xmlns:cc="http://creativecommons.org/ns#"
   xmlns:rdf="http://www.w3.org/1999/02/22-rdf-syntax-ns#"
   xmlns:svg="http://www.w3.org/2000/svg"
   xmlns="http://www.w3.org/2000/svg"
   xmlns:sodipodi="http://sodipodi.sourceforge.net/DTD/sodipodi-0.dtd"
   xmlns:inkscape="http://www.inkscape.org/namespaces/inkscape"
   width="8.7267847mm"
   height="8.1855631mm"
   viewBox="0 0 8.7267847 8.1855631"
   version="1.1"
   id="svg1117"
   sodipodi:docname="logo.svg"
   inkscape:version="0.92.2 (unknown)">
  <defs
     id="defs1111" />
  <sodipodi:namedview
     id="base"
     pagecolor="#ffffff"
     bordercolor="#666666"
     borderopacity="1.0"
     inkscape:pageopacity="0.0"
     inkscape:pageshadow="2"
     inkscape:zoom="7.9195959"
     inkscape:cx="38.875822"
     inkscape:cy="1.164729"
     inkscape:document-units="mm"
     inkscape:current-layer="layer1"
     showgrid="false"
     inkscape:window-width="1680"
     inkscape:window-height="1026"
     inkscape:window-x="0"
     inkscape:window-y="24"
     inkscape:window-maximized="1" />
  <metadata
     id="metadata1114">
    <rdf:RDF>
      <cc:Work
         rdf:about="">
        <dc:format>image/svg+xml</dc:format>
        <dc:type
           rdf:resource="http://purl.org/dc/dcmitype/StillImage" />
        <dc:title></dc:title>
      </cc:Work>
    </rdf:RDF>
  </metadata>
  <g
     inkscape:label="Layer 1"
     inkscape:groupmode="layer"
     id="layer1"
     transform="translate(79.958627,-4.13341)">
    <g
       id="g1072"
       transform="translate(784.33084,-266.34097)"
       inkscape:export-xdpi="291.68427"
       inkscape:export-ydpi="291.68427">
      <path
         style="opacity:1;fill:#ff0066;fill-opacity:1;stroke:none;stroke-width:1.2562474;stroke-linecap:butt;stroke-linejoin:miter;stroke-miterlimit:4;stroke-dasharray:none;stroke-dashoffset:0;stroke-opacity:1"
         d="M 15.589844 0 L 7.078125 1.3925781 L 15.591797 5.3046875 L 15.589844 0 z M 15.591797 5.3046875 L 26.945312 8.8554688 L 25.585938 1.3925781 L 17.074219 0 L 17.072266 4.7246094 L 15.591797 5.3046875 z M 26.945312 8.8554688 L 17.042969 8.0058594 L 17.074219 11.884766 L 16.332031 18.074219 L 21.753906 16.431641 L 18.585938 13.128906 L 22.3125 16.109375 L 26.945312 8.8574219 L 26.945312 8.8554688 z M 16.332031 18.074219 L 15.591797 11.900391 L 15.621094 8.1132812 L 17.042969 8.0058594 L 7.078125 1.3925781 L 5.7207031 8.8554688 L 5.71875 8.8554688 L 5.71875 8.8574219 L 10.351562 16.109375 L 14.076172 13.130859 L 10.912109 16.431641 L 16.332031 18.074219 z "
         transform="matrix(0.26458333,0,0,0.26458333,-864.28947,270.47438)"
         id="path5081-5" />
      <g
         aria-label="SECAM"
         style="font-style:normal;font-variant:normal;font-weight:bold;font-stretch:normal;font-size:2.14528298px;line-height:125%;font-family:Waree;-inkscape-font-specification:'Waree Bold';letter-spacing:0.50006247px;word-spacing:0px;fill:#ff0066;fill-opacity:1;stroke:none;stroke-width:0.05363207px;stroke-linecap:butt;stroke-linejoin:miter;stroke-opacity:1"
         id="text1058">
        <path
           d="m -863.24042,277.09389 v 0.16089 h -0.69508 q -0.19307,0 -0.19307,0.19951 v 0.15017 q 0,0.17806 0.17377,0.17806 h 0.46123 q 0.30463,0 0.30463,0.31107 v 0.22311 q 0,0.34324 -0.33681,0.34324 h -0.75299 v -0.16089 h 0.73583 q 0.19522,0 0.19522,-0.19951 v -0.19308 q 0,-0.17806 -0.17377,-0.17806 h -0.46338 q -0.30463,0 -0.30463,-0.31106 v -0.18021 q 0,-0.34324 0.33681,-0.34324 z"
           style="font-style:normal;font-variant:normal;font-weight:bold;font-stretch:normal;font-family:Zekton;-inkscape-font-specification:'Zekton Bold';letter-spacing:0.50006247px;fill:#ff0066;fill-opacity:1;stroke-width:0.05363207px"
           id="path1761" />
        <path
           d="m -861.48202,277.09389 v 0.16089 h -0.81092 v 0.53203 h 0.79805 v 0.15446 h -0.79805 v 0.55778 h 0.8195 v 0.16089 h -0.98254 v -1.56605 z"
           style="font-style:normal;font-variant:normal;font-weight:bold;font-stretch:normal;font-family:Zekton;-inkscape-font-specification:'Zekton Bold';letter-spacing:0.50006247px;fill:#ff0066;fill-opacity:1;stroke-width:0.05363207px"
           id="path1763" />
        <path
           d="m -859.76246,277.09389 v 0.16089 h -0.61784 q -0.21668,0 -0.21668,0.22097 v 0.80233 q 0,0.22097 0.21668,0.22097 h 0.61784 v 0.16089 h -0.64788 q -0.34968,0 -0.34968,-0.35611 V 277.45 q 0,-0.35611 0.34968,-0.35611 z"
           style="font-style:normal;font-variant:normal;font-weight:bold;font-stretch:normal;font-family:Zekton;-inkscape-font-specification:'Zekton Bold';letter-spacing:0.50006247px;fill:#ff0066;fill-opacity:1;stroke-width:0.05363207px"
           id="path1765" />
        <path
           d="m -858.0709,278.12791 -0.34539,-0.84953 -0.55348,1.38156 h -0.16948 l 0.63715,-1.56605 h 0.17591 l 0.65217,1.56605 h -0.18235 l -0.15446,-0.38186 h -0.71867 l 0.0579,-0.15017 z"
           style="font-style:normal;font-variant:normal;font-weight:bold;font-stretch:normal;font-family:Zekton;-inkscape-font-specification:'Zekton Bold';letter-spacing:0.50006247px;fill:#ff0066;fill-opacity:1;stroke-width:0.05363207px"
           id="path1767" />
        <path
           d="m -856.82411,277.09389 0.53847,1.38799 0.53203,-1.38799 h 0.19093 v 1.56605 h -0.15232 v -1.26357 l -0.49341,1.26357 h -0.15661 l -0.50199,-1.26571 v 1.26571 h -0.15017 v -1.56605 z"
           style="font-style:normal;font-variant:normal;font-weight:bold;font-stretch:normal;font-family:Zekton;-inkscape-font-specification:'Zekton Bold';letter-spacing:0.50006247px;fill:#ff0066;fill-opacity:1;stroke-width:0.05363207px"
           id="path1769" />
      </g>
    </g>
  </g>
</svg>
